<?xml version="1.0" encoding="UTF-8"?>
<session version="1.0">
<refactoring comment="Move 2 elements to &apos;singleton/src&apos;&#x0A;- Original project: &apos;singleton&apos;&#x0A;- Destination element: &apos;singleton/src&apos;&#x0A;- Original elements:&#x0A;     Singleton_out.java&#x0A;     Singleton.java&#x0A;- Update references to refactored element" description="Move files" destination="/src" element1="Singleton_out.java" element2="Singleton.java" files="2" flags="589830" folders="0" id="org.eclipse.jdt.ui.move" policy="org.eclipse.jdt.ui.moveResources" qualified="false" references="true" stamp="1402167461947" units="0" version="1.0"/>
</session>